<?xml version="1.0" encoding="UTF-8"?>
<svg width="30px" height="30px" viewBox="0 0 30 30" version="1.1" xmlns="http://www.w3.org/2000/svg" xmlns:xlink="http://www.w3.org/1999/xlink">
    <title>insta</title>
    <g id="Page-1" stroke="none" stroke-width="1" fill="none" fill-rule="evenodd">
        <g id="01_home" transform="translate(-34.000000, -649.000000)" fill="#FFFFFF" fill-rule="nonzero">
            <g id="Group" transform="translate(34.000000, 612.000000)">
                <g id="insta" transform="translate(0.000000, 37.000000)">
                    <g id="instagram" transform="translate(7.200000, 7.200000)">
                        <path d="M10.3125,0 L4.6875,0 C2.0990625,0 0,2.0990625 0,4.6875 L0,10.3125 C0,12.9009375 2.0990625,15 4.6875,15 L10.3125,15 C12.9009375,15 15,12.9009375 15,10.3125 L15,4.6875 C15,2.0990625 12.9009375,0 10.3125,0 Z M13.59375,10.3125 C13.59375,12.121875 12.121875,13.59375 10.3125,13.59375 L4.6875,13.59375 C2.878125,13.59375 1.40625,12.121875 1.40625,10.3125 L1.40625,4.6875 C1.40625,2.878125 2.878125,1.40625 4.6875,1.40625 L10.3125,1.40625 C12.121875,1.40625 13.59375,2.878125 13.59375,4.6875 L13.59375,10.3125 Z" id="Shape"></path>
                        <path d="M7.5,3.75 C5.4290625,3.75 3.75,5.4290625 3.75,7.5 C3.75,9.5709375 5.4290625,11.25 7.5,11.25 C9.5709375,11.25 11.25,9.5709375 11.25,7.5 C11.25,5.4290625 9.5709375,3.75 7.5,3.75 Z M7.5,9.84375 C6.208125,9.84375 5.15625,8.791875 5.15625,7.5 C5.15625,6.2071875 6.208125,5.15625 7.5,5.15625 C8.791875,5.15625 9.84375,6.2071875 9.84375,7.5 C9.84375,8.791875 8.791875,9.84375 7.5,9.84375 Z" id="Shape"></path>
                        <circle id="Oval" cx="11.53125" cy="3.46875" r="1"></circle>
                    </g>
                </g>
            </g>
        </g>
    </g>
</svg>