<?xml version="1.0" encoding="UTF-8"?>
<svg width="22px" height="22px" viewBox="0 0 22 22" version="1.1" xmlns="http://www.w3.org/2000/svg" xmlns:xlink="http://www.w3.org/1999/xlink">
    <title>match tickets</title>
    <g id="Page-1" stroke="none" stroke-width="1" fill="none" fill-rule="evenodd">
        <g id="01_home" transform="translate(-39.000000, -162.000000)" fill="#FFFFFF" fill-rule="nonzero">
            <g id="match-tickets" transform="translate(39.000000, 162.000000)">
                <path d="M5.63830566,9.31716921 C5.7514343,9.31716921 5.86221316,9.2711792 5.94210813,9.19128418 C6.0220032,9.11122132 6.06799316,9.00044252 6.06799316,8.88748171 C6.06799316,8.77435303 6.0220032,8.66357422 5.94210813,8.5836792 C5.86221316,8.50378418 5.7514343,8.45779421 5.63830566,8.45779421 C5.52484131,8.45779421 5.41456605,8.50378418 5.3345032,8.5836792 C5.25460813,8.66357422 5.20861816,8.77435303 5.20861816,8.88748171 C5.20861816,9.00044252 5.25460813,9.11122132 5.3345032,9.19128418 C5.41456605,9.2711792 5.52534486,9.31716921 5.63830566,9.31716921 Z" id="Path"></path>
                <path d="M11.7935791,8.74816895 C11.7133484,8.66827393 11.6029053,8.62228391 11.4894409,8.62228391 C11.3764801,8.62228391 11.2655335,8.66827393 11.1856384,8.74816895 C11.1057434,8.82806396 11.0597534,8.93901061 11.0597534,9.05197141 C11.0597534,9.16493226 11.1057434,9.27587891 11.1856384,9.35577393 C11.2655335,9.43566895 11.3764801,9.48165891 11.4894409,9.48165891 C11.6029053,9.48165891 11.7133484,9.43566895 11.7935791,9.35577393 C11.8734741,9.27587891 11.9191284,9.16543581 11.9191284,9.05197141 C11.9191284,8.93901061 11.8734741,8.82806396 11.7935791,8.74816895 Z" id="Path"></path>
                <path d="M12.9936829,7.97775266 C13.1068115,7.97775266 13.2175903,7.9317627 13.2974854,7.85186768 C13.3773804,7.77197266 13.4230347,7.66102601 13.4230347,7.54806516 C13.4230347,7.43510436 13.3773804,7.32415771 13.2974854,7.2442627 C13.2175903,7.16436768 13.1068115,7.11837766 12.9936829,7.11837766 C12.8803864,7.11837766 12.7694397,7.16436768 12.6895447,7.2442627 C12.6096497,7.32415771 12.5636597,7.43510436 12.5636597,7.54806516 C12.5636597,7.66102601 12.6096497,7.77197266 12.6895447,7.85186768 C12.7694397,7.9317627 12.8803864,7.97775266 12.9936829,7.97775266 Z" id="Path"></path>
                <path d="M20.7109375,10.5701447 L19.5120087,10.5701447 L21.6225128,8.45964049 C21.8658905,8.21609499 22,7.89231871 22,7.54806516 C22,7.20381166 21.8658905,6.88003542 21.6225128,6.63665771 L19.7082214,4.72236634 C19.5405426,4.5546875 19.2684632,4.5546875 19.1006165,4.72236634 C18.8572388,4.96591184 18.5334625,5.10002135 18.189209,5.10002135 C17.8447876,5.10002135 17.5211792,4.96591184 17.2776337,4.72236634 C17.0340882,4.47898864 16.9001465,4.1552124 16.9001465,3.81095885 C16.9001465,3.46653746 17.034256,3.14292907 17.2776337,2.89938352 C17.3582001,2.81881712 17.4035187,2.70954896 17.4035187,2.59558105 C17.4035187,2.48161315 17.3582001,2.37234499 17.2776337,2.29177859 L15.3635101,0.377655008 C15.1199646,0.134109508 14.7963562,0 14.4519348,0 C14.1076813,0 13.783905,0.134109508 13.5405273,0.377655008 L6.44363405,7.4743805 C6.27578737,7.6420593 6.27578737,7.9141388 6.44363405,8.08198548 C6.61148073,8.24983216 6.88356019,8.24983216 7.05140687,8.08198548 L14.1481323,0.985260031 C14.2293701,0.904022195 14.3371277,0.859375 14.4519348,0.859375 C14.5667419,0.859375 14.6746673,0.904022195 14.7557373,0.985260031 L16.3964386,2.62579346 C16.164978,2.97424316 16.0407715,3.38311768 16.0407715,3.81095885 C16.0407715,4.38482666 16.2641754,4.92428587 16.6700287,5.33013916 C17.075882,5.73582457 17.6153412,5.95939635 18.189209,5.95939635 C18.6170502,5.95939635 19.0257568,5.83518981 19.3743744,5.60372923 L21.0149078,7.2442627 C21.1824188,7.4117737 21.1824188,7.68435671 21.0149078,7.85186768 L18.2966309,10.5701447 L16.4128876,10.5701447 L17.824646,9.15838623 C17.9923248,8.99053955 17.9923248,8.71846009 17.824646,8.55078125 L13.4493866,4.17552184 C13.2815399,4.00767516 13.0094604,4.00767516 12.8416138,4.17552184 L6.44699095,10.5701447 L1.2890625,10.5701447 C0.578231801,10.5701447 0,11.1483765 0,11.8592072 L0,14.5662384 C0,14.8034058 0.192352273,14.9959259 0.4296875,14.9959259 C1.1405182,14.9959259 1.71875,15.5741577 1.71875,16.2849884 C1.71875,16.9956512 1.1405182,17.5740509 0.4296875,17.5740509 C0.192352273,17.5740509 0,17.7664032 0,18.0037384 L0,20.7107697 C0,21.4214325 0.578231801,21.9998322 1.2890625,21.9998322 L20.7109375,21.9998322 C21.4217682,21.9998322 22,21.4214325 22,20.7107697 L22,18.0037384 C22,17.7664032 21.8076477,17.5740509 21.5703125,17.5740509 C20.8594818,17.5740509 20.28125,16.9956512 20.28125,16.2849884 C20.28125,15.5741577 20.8594818,14.9959259 21.5703125,14.9959259 C21.8076477,14.9959259 22,14.8034058 22,14.5662384 L22,11.8592072 C22,11.1483765 21.4217682,10.5701447 20.7109375,10.5701447 Z M13.1454163,5.08692933 L16.9130707,8.85458372 L15.1975098,10.5701447 L13.496048,10.5701447 L14.7557373,9.31028746 C14.923584,9.14260866 14.923584,8.87052916 14.7557373,8.70268248 C14.5880585,8.5348358 14.315979,8.5348358 14.1481323,8.70268248 L12.2806702,10.5699768 L7.66236879,10.5699768 L13.1454163,5.08692933 Z M21.140625,14.1796875 C20.1612396,14.3792572 19.421875,15.2473602 19.421875,16.2849884 C19.421875,17.3224487 20.1612396,18.1905518 21.140625,18.3902893 L21.140625,20.7107697 C21.140625,20.9476013 20.947937,21.1404572 20.7109375,21.1404572 L1.2890625,21.1404572 C1.05206299,21.1404572 0.859375,20.9476013 0.859375,20.7107697 L0.859375,18.3902893 C1.83876039,18.1905518 2.578125,17.3224487 2.578125,16.2849884 C2.578125,15.2473602 1.83876039,14.3794251 0.859375,14.1796875 L0.859375,11.8592072 C0.859375,11.6222077 1.05206299,11.4295197 1.2890625,11.4295197 L20.7109375,11.4295197 C20.947937,11.4295197 21.140625,11.6222077 21.140625,11.8592072 L21.140625,14.1796875 Z" id="Shape"></path>
                <path d="M9.17684934,15.5575409 C9.25674441,15.477478 9.30273438,15.3666992 9.30273438,15.2537384 C9.30273438,15.1406097 9.25674441,15.0298309 9.17684934,14.9499359 C9.09695437,14.8700409 8.98600768,14.8240509 8.87304688,14.8240509 C8.76008607,14.8240509 8.64913938,14.8700409 8.56924441,14.9499359 C8.48934934,15.0298309 8.44335938,15.1406097 8.44335938,15.2537384 C8.44335938,15.3666992 8.48934934,15.477478 8.56924441,15.5575409 C8.64913938,15.6374359 8.76008607,15.6834259 8.87304688,15.6834259 C8.98600768,15.6834259 9.09695437,15.6374359 9.17684934,15.5575409 Z" id="Path"></path>
                <path d="M13.4307556,15.5575409 C13.5106507,15.477478 13.5566406,15.3666992 13.5566406,15.2537384 C13.5566406,15.1406097 13.5106507,15.0298309 13.4307556,14.9499359 C13.3508606,14.8700409 13.2399139,14.8240509 13.1269531,14.8240509 C13.0139923,14.8240509 12.9030456,14.8700409 12.8231507,14.9499359 C12.7432556,15.0298309 12.6972656,15.1406097 12.6972656,15.2537384 C12.6972656,15.3666992 12.7432556,15.477478 12.8231507,15.5575409 C12.9030456,15.6374359 13.0139923,15.6834259 13.1269531,15.6834259 C13.2399139,15.6834259 13.3508606,15.6374359 13.4307556,15.5575409 Z" id="Path"></path>
                <path d="M11.3038025,15.5575409 C11.3836975,15.477478 11.4296875,15.3666992 11.4296875,15.2537384 C11.4296875,15.1406097 11.3836975,15.0298309 11.3038025,14.9499359 C11.2239075,14.8700409 11.1129608,14.8240509 11,14.8240509 C10.8870392,14.8240509 10.7760925,14.8700409 10.6961975,14.9499359 C10.6163025,15.0298309 10.5703125,15.1406097 10.5703125,15.2537384 C10.5703125,15.3666992 10.6163025,15.477478 10.6961975,15.5575409 C10.7760925,15.6374359 10.8870392,15.6834259 11,15.6834259 C11.1129608,15.6834259 11.2239075,15.6374359 11.3038025,15.5575409 Z" id="Path"></path>
                <path d="M6.74609375,15.6834259 C6.85905455,15.6834259 6.97000124,15.6374359 7.04989622,15.5575409 C7.12979128,15.477478 7.17578125,15.3666992 7.17578125,15.2537384 C7.17578125,15.1406097 7.12979128,15.0298309 7.04989622,14.9499359 C6.97000124,14.8700409 6.85905455,14.8240509 6.74609375,14.8240509 C6.63313295,14.8240509 6.52218626,14.8700409 6.44229128,14.9499359 C6.36239622,15.0298309 6.31640625,15.1406097 6.31640625,15.2537384 C6.31640625,15.3666992 6.36239622,15.477478 6.44229128,15.5575409 C6.52218626,15.6374359 6.63313295,15.6834259 6.74609375,15.6834259 Z" id="Path"></path>
                <path d="M15.5577087,15.5575409 C15.6376038,15.477478 15.6835938,15.3666992 15.6835938,15.2537384 C15.6835938,15.1406097 15.6376038,15.0298309 15.5577087,14.9499359 C15.4778137,14.8700409 15.3668671,14.8240509 15.2539062,14.8240509 C15.1409454,14.8240509 15.0299988,14.8700409 14.9501038,14.9499359 C14.8702087,15.0298309 14.8242188,15.1406097 14.8242188,15.2537384 C14.8242188,15.3666992 14.8702087,15.477478 14.9501038,15.5575409 C15.0299988,15.6374359 15.1409454,15.6834259 15.2539062,15.6834259 C15.3668671,15.6834259 15.4778137,15.6374359 15.5577087,15.5575409 Z" id="Path"></path>
                <path d="M6.74609375,17.7459259 L15.2539062,17.7459259 C15.4912415,17.7459259 15.6835938,17.5534058 15.6835938,17.3162384 C15.6835938,17.0789032 15.4912415,16.8865509 15.2539062,16.8865509 L6.74609375,16.8865509 C6.50875852,16.8865509 6.31640625,17.0789032 6.31640625,17.3162384 C6.31640625,17.5534058 6.50875852,17.7459259 6.74609375,17.7459259 Z" id="Path"></path>
                <path d="M8.30673216,18.9490509 C8.19377135,18.9490509 8.08282471,18.9950409 8.00292969,19.0749359 C7.92303467,19.1548309 7.87704466,19.2656097 7.87704466,19.3787384 C7.87704466,19.4916992 7.92303467,19.602478 8.00292969,19.6825409 C8.08282471,19.7624359 8.19377135,19.8084259 8.30673216,19.8084259 C8.42019655,19.8084259 8.53063965,19.7624359 8.61053467,19.6825409 C8.69093324,19.602478 8.73641966,19.4916992 8.73641966,19.3787384 C8.73641966,19.2656097 8.69093324,19.1548309 8.61053467,19.0749359 C8.53063965,18.9950409 8.42019655,18.9490509 8.30673216,18.9490509 Z" id="Path"></path>
                <path d="M17.53125,12.7615509 L4.46875,12.7615509 C4.23141477,12.7615509 4.0390625,12.9539032 4.0390625,13.1912384 L4.0390625,19.3787384 C4.0390625,19.6159058 4.23141477,19.8084259 4.46875,19.8084259 L6.25866699,19.8084259 C6.49600222,19.8084259 6.68835449,19.6159058 6.68835449,19.3787384 C6.68835449,19.1414032 6.49600222,18.9490509 6.25866699,18.9490509 L4.8984375,18.9490509 L4.8984375,13.6209259 L17.1015625,13.6209259 L17.1015625,18.9490509 L10.1258545,18.9490509 C9.88851927,18.9490509 9.69616699,19.1414032 9.69616699,19.3787384 C9.69616699,19.6159058 9.88851927,19.8084259 10.1258545,19.8084259 L17.53125,19.8084259 C17.7685852,19.8084259 17.9609375,19.6159058 17.9609375,19.3787384 L17.9609375,13.1912384 C17.9609375,12.9539032 17.7685852,12.7615509 17.53125,12.7615509 Z" id="Path"></path>
            </g>
        </g>
    </g>
</svg>