<?xml version="1.0" encoding="UTF-8"?>
<svg width="28px" height="26px" viewBox="0 0 28 26" version="1.1" xmlns="http://www.w3.org/2000/svg" xmlns:xlink="http://www.w3.org/1999/xlink">
    <title>season-tickets</title>
    <g id="Page-1" stroke="none" stroke-width="1" fill="none" fill-rule="evenodd">
        <g id="02_home" transform="translate(-37.000000, -231.000000)">
            <g id="Group-2" transform="translate(37.718830, 232.000000)">
                <path d="M13.2481485,22.4419922 L13.2481485,22.4419922 C8.60537503,19.0964844 5.2456094,14.2648438 3.72627347,8.74785156 L2.87822659,5.66914063 L13.2481485,6.80011603e-14 L23.6180703,5.66914063 L22.7700235,8.74785156 C21.2506875,14.2648438 17.8909219,19.0964844 13.2481485,22.4419922 Z" id="Stroke-3" stroke="#FFFFFF"></path>
                <g id="Shape" transform="translate(2.878227, 0.000000)" fill="#FFFFFF" fill-rule="nonzero">
                    <path d="M10.4030078,10.994043 C7.27486705,10.994043 4.73894531,13.5299647 4.73894531,16.6581055 C4.73894531,19.7862462 7.27486705,22.322168 10.4030078,22.322168 C13.5311486,22.322168 16.0670703,19.7862462 16.0670703,16.6581055 C16.0635671,13.5314397 13.5296736,10.9975461 10.4030078,10.994043 Z M10.6051772,12.6269782 L12.5742318,11.8398726 C12.7976967,11.9410034 13.0138788,12.0575297 13.2212108,12.1886218 L13.2263733,12.1918484 C13.43011,12.3209123 13.6248121,12.4637123 13.8091891,12.6192343 L13.8250456,12.6330626 C13.9077387,12.7034947 13.9881271,12.7764158 14.0663029,12.8516416 C14.0761671,12.8613214 14.0864922,12.8705402 14.0963564,12.8804044 C14.178312,12.960424 14.2576863,13.0429328 14.3344793,13.1278384 C14.3408403,13.1350291 14.3469248,13.1425885 14.3532858,13.1497793 C14.4206756,13.2252817 14.4854841,13.3034575 14.5483567,13.382924 C14.5634756,13.4018227 14.5785945,13.4207213 14.5932525,13.43962 C14.661472,13.5279366 14.727479,13.6178204 14.7897984,13.710562 L14.3972597,15.3791742 L12.4660024,16.0230188 L10.6056382,14.5344508 L10.6051772,12.6269782 Z M6.21257875,13.4407262 C6.22723674,13.4218276 6.24217126,13.4029289 6.2572902,13.3841225 C6.31942525,13.3053013 6.38368064,13.2284161 6.45005638,13.1533746 C6.45724709,13.1454464 6.46388466,13.1373338 6.47098317,13.1294056 C6.54731527,13.0443156 6.62632082,12.961899 6.70818422,12.8820638 C6.71758746,12.872845 6.72699068,12.8631652 6.73685486,12.8546838 C6.8143854,12.7799189 6.89412846,12.7074587 6.97608407,12.6373955 L6.99498271,12.6215391 C7.17770036,12.4671233 7.37055871,12.3252452 7.57226721,12.1967344 L7.57964229,12.1920328 C7.7857758,12.0612172 8.00057505,11.9448753 8.22274939,11.8436523 L10.2008384,12.6269782 L10.2008384,14.5338977 L8.34038192,16.0221891 L6.40912467,15.3795429 L6.01658598,13.7109308 C6.07945854,13.6183735 6.14472801,13.5286741 6.21257875,13.4407262 Z M5.98505749,19.555314 C5.92956002,19.4706849 5.87645943,19.3844887 5.82584794,19.296633 L5.81358685,19.2754297 C5.76325193,19.188035 5.71559045,19.0991652 5.67069466,19.0089127 L5.66912744,19.0060548 C5.57454203,18.8161465 5.49148018,18.6207068 5.42049501,18.4207499 L5.42049501,18.4189061 C5.38693839,18.3245051 5.35633181,18.2277994 5.32802995,18.1305405 L5.31779702,18.0946791 C5.29189205,18.0033203 5.26838397,17.9109474 5.24736499,17.8175604 C5.24552122,17.8084338 5.24321651,17.7997681 5.24137272,17.7907336 C5.19500191,17.5798063 5.16172184,17.3662976 5.14162476,17.1512218 L6.29425779,15.7681175 L8.21214771,16.4073527 L8.76878196,18.6337054 L7.85417969,19.8505938 L5.98505749,19.555314 Z M11.6602748,21.7921762 C11.5658738,21.8155921 11.4689836,21.8357814 11.3720935,21.8539425 C11.3585418,21.856616 11.3447135,21.8588285 11.3311618,21.8613176 C11.2486531,21.8760677 11.1652225,21.8886975 11.0816075,21.8990227 C11.0592979,21.9018805 11.0371726,21.9049227 11.0149552,21.9075962 C10.9373325,21.9166307 10.8589722,21.9234526 10.7804276,21.9290761 C10.7557211,21.9307355 10.7312911,21.9332246 10.7065846,21.9347918 C10.6061913,21.9409684 10.5049683,21.9445638 10.4030078,21.9445638 C10.3096209,21.9445638 10.216787,21.9420747 10.1245063,21.9371887 C10.1133515,21.9371887 10.1026576,21.935345 10.0915028,21.9345153 C10.0093628,21.9298136 9.92759163,21.923637 9.8460048,21.9157088 L9.83660156,21.9139572 C9.65784802,21.8945976 9.48010856,21.8662036 9.30421287,21.8290516 L8.18744118,20.080512 L9.08766205,18.8801253 L11.7183536,18.8801253 L12.6333246,20.0884402 L11.6602748,21.7921762 Z M15.5660257,17.790918 C15.5640898,17.7999524 15.5618772,17.8087103 15.5599413,17.8177448 C15.5388301,17.9110396 15.515322,18.0034125 15.4895093,18.0948635 L15.4793685,18.1307249 C15.4509744,18.2279837 15.42046,18.3243207 15.3868112,18.4190905 L15.3868112,18.4209343 C15.3158261,18.6208912 15.2328564,18.8163309 15.1381788,19.0062392 L15.1366116,19.009097 C15.0914392,19.0994418 15.04387,19.1883115 14.9937194,19.275614 L14.9814583,19.2968174 C14.9311234,19.3849496 14.878115,19.4709615 14.8225253,19.5551296 L12.9597642,19.8488422 L12.0388009,18.6329679 L12.5951586,16.4071683 L14.5130485,15.7679331 L15.6656815,17.1510375 C15.6456766,17.3662055 15.6123965,17.5798985 15.5660257,17.790918 L15.5660257,17.790918 Z"></path>
                </g>
                <path d="M3.08008206,12.1781641 C3.258793,11.6730859 3.0634805,11.1303125 3.06387112,11.1291406 C3.06465237,11.1297266 2.54980862,11.3857813 2.36367581,11.8947656 C2.26601956,12.1621484 2.28105862,12.4455469 2.31855862,12.6533594 C2.15898831,12.3111719 2.00469144,11.9664453 1.85586331,11.6191797 C1.98867581,11.5398828 2.35293362,11.2902734 2.51465237,10.8853906 C2.71308987,10.3873438 2.53945706,9.83636719 2.53984769,9.83519531 C2.54062894,9.83578125 2.01601956,10.0711328 1.80996487,10.5726953 C1.7009805,10.8383203 1.70547269,11.1244531 1.7353555,11.3344141 C1.58887112,10.9842188 1.44766019,10.6314844 1.31211331,10.2764063 C1.35683987,10.0908594 1.42715237,9.688125 1.29121487,9.30121094 C1.10762112,8.7803125 0.610550811,8.46527344 0.609964873,8.46409903 C0.609769561,8.46273438 0.386917998,9.01605469 0.575785186,9.55257813 C0.717972686,9.956875 1.04961331,10.2234766 1.202543,10.3273828 C1.33359769,10.6701563 1.4697305,11.0107813 1.61094144,11.3490625 C1.48203519,11.1853906 1.29258206,10.9924219 1.04453519,10.8750391 C0.548832061,10.6404688 0.000199248109,10.8027734 -2.08166817e-15,10.80375 C-0.00116793939,10.8033594 0.259378936,11.3781641 0.763089873,11.6094141 C1.1634805,11.7935938 1.58867581,11.7066797 1.74453519,11.6652734 C1.89082425,12.0062891 2.04199612,12.3449609 2.19844144,12.6808984 C2.06308987,12.5221094 1.86523831,12.3351953 1.61094144,12.2275781 C1.10664456,12.0135156 0.565042998,12.1978906 0.564847686,12.1986719 C0.563675811,12.1984766 0.846488311,12.7613672 1.358793,12.9715234 C1.76719144,13.1396875 2.18945706,13.0348047 2.34277737,12.9873438 C2.50273831,13.3228906 2.66777737,13.6558984 2.83789456,13.9863672 C2.69648831,13.8326563 2.49043362,13.6521875 2.23027737,13.5543359 C1.71797269,13.3611719 1.18418362,13.5668359 1.18398831,13.5680078 C1.18281644,13.5676172 1.48769925,14.1182031 2.00781644,14.3070703 C2.42324612,14.4588281 2.84219144,14.3361719 2.99238675,14.2826563 C3.16621487,14.6127344 3.34492581,14.9398828 3.52871487,15.2641016 C3.38125394,15.1154688 3.16719144,14.9416406 2.90137112,14.85375 C2.38203519,14.6814844 1.85683987,14.9086328 1.85683987,14.9096094 C1.85547269,14.9092188 2.18183987,15.4465234 2.70898831,15.6146875 C3.13105862,15.7496484 3.54570706,15.6092188 3.69277737,15.5502344 C3.88008206,15.8738672 4.07266019,16.1945703 4.2697305,16.5123438 C4.11641019,16.3691797 3.89433987,16.2023828 3.62344144,16.1246484 C3.09766019,15.9734766 2.58203519,16.2213281 2.58203519,16.2223047 C2.580668,16.2221094 2.92812894,16.7457422 3.46152737,16.8924219 C3.88965237,17.0105859 4.29922269,16.8529688 4.44277737,16.7883203 C4.64375394,17.1053125 4.84961331,17.4191797 5.06016019,17.7299219 C4.9009805,17.5922266 4.67109769,17.4324609 4.39531644,17.3654688 C3.86406644,17.2351953 3.35859769,17.50375 3.358793,17.5045313 C3.35742581,17.5045313 3.72539456,18.0135156 4.26406644,18.1391016 C4.69766019,18.2402734 5.10176175,18.0652734 5.2416055,17.9951563 C5.45586331,18.3051172 5.67500394,18.6117578 5.89883206,18.9150781 C5.73398831,18.7830469 5.49668362,18.6310938 5.21641019,18.5744531 C4.68008206,18.4654688 4.18594144,18.7539453 4.18594144,18.7549219 C4.18476956,18.7547266 4.5728555,19.2488672 5.11621487,19.3527734 C5.55469144,19.4371484 5.95234769,19.2449609 6.08828519,19.1697656 C6.31562894,19.4723047 6.5478555,19.7711328 6.78476956,20.0666406 C6.61465237,19.9404688 6.36953519,19.7961328 6.0853555,19.7504297 C5.54512112,19.6625391 5.06269925,19.9703516 5.06289456,19.9713281 C5.06152737,19.9713281 5.46914456,20.4500391 6.0166055,20.5322656 C6.45937894,20.5994531 6.84980862,20.3906641 6.98203519,20.3103906 C7.22226956,20.6049219 7.46738675,20.8957422 7.71719144,21.1828516 C7.54180081,21.0627344 7.28945706,20.9264063 7.00137112,20.8916406 C6.45781644,20.8252344 5.98808987,21.1521875 5.98828519,21.1531641 C5.986918,21.1529688 6.41387112,21.6154688 6.96445706,21.6764063 C7.41074612,21.7262109 7.79355862,21.5004297 7.92168362,21.4156641 C8.17480862,21.7017969 8.43262112,21.9840234 8.69531644,22.2623438 C8.51484769,22.1486719 8.25527737,22.0205469 7.96367581,21.9967188 C7.41738675,21.9517969 6.96113675,22.2973047 6.96133206,22.2980859 C6.95996487,22.2980859 7.405668,22.7437891 7.958793,22.7830469 C8.40840237,22.8154688 8.78262112,22.5736719 8.90605862,22.4842188 C9.17207425,22.7615625 9.44277737,23.0348047 9.71777737,23.3039453 C9.53262112,23.1965234 9.26582425,23.0767969 8.97109769,23.0642969 C8.4228555,23.0408594 7.98086331,23.4041406 7.98105862,23.4049219 C7.97969144,23.4049219 8.44375394,23.8334375 8.99863675,23.8510156 C9.45078519,23.8660547 9.81601956,23.6080469 9.93476956,23.5142969 C10.2132852,23.7822656 10.4964883,24.0461328 10.7841836,24.3057031 C10.5941446,24.2049219 10.3205117,24.0939844 10.0228555,24.0930078 C9.47344144,24.0906641 9.046293,24.4713281 9.04648831,24.4723047 C9.04512112,24.4723047 9.52695706,24.8826563 10.0828164,24.8787777 C10.6375039,24.8750391 11.0449258,24.4687891 11.0451211,24.4697656 C11.0451211,24.4697656 11.0425821,24.4676172 11.0378946,24.464099 C11.0382852,24.4639063 11.0384805,24.4635156 11.0388711,24.463125 C11.0429727,24.4674219 11.0451211,24.4697656 11.0451211,24.4697656 C11.0460977,24.4699609 11.3935586,24.0152734 11.3593789,23.4777734 C11.3250039,22.9410547 10.9322305,22.5154688 10.9322305,22.5142969 C10.9332071,22.5144922 10.5585977,22.9508203 10.5865274,23.4933984 C10.6005899,23.7592188 10.7105508,24.0002344 10.8199258,24.175625 C10.5482461,23.9295313 10.2804727,23.6797266 10.0169961,23.4262109 C10.1128946,23.2930078 10.3392617,22.9285547 10.3302774,22.5023828 C10.3183633,21.9654688 9.94375394,21.5254297 9.94375394,21.5242578 C9.9447305,21.5246484 9.55293362,21.9455469 9.55840237,22.4879297 C9.56152737,22.7557031 9.66269925,23.0019922 9.76523831,23.1814844 C9.50332425,22.9244531 9.24551175,22.6641016 8.99199612,22.3996484 C9.09277737,22.2713281 9.33496487,21.9154688 9.34355862,21.4889063 C9.35371487,20.9525781 8.99766019,20.4986719 8.99766019,20.4975 C8.99863675,20.4976953 8.59023831,20.9025781 8.57363675,21.4441797 C8.56562894,21.7133203 8.65781644,21.9646875 8.75332425,22.1484766 C8.50156644,21.8808984 8.2541055,21.6096094 8.01094144,21.3348047 C8.11641019,21.2115625 8.37383206,20.8652734 8.39980862,20.4387109 C8.43183987,19.90375 8.09492581,19.4363672 8.09492581,19.4351953 C8.09590237,19.4355859 7.67168362,19.8238672 7.63301175,20.3639063 C7.61387112,20.6342188 7.69687894,20.8902734 7.78555081,21.0775781 C7.54414456,20.7998438 7.3072305,20.5182031 7.07480862,20.2334375 C7.18457425,20.1152734 7.45703519,19.7791406 7.50039456,19.3529688 C7.5541055,18.8201563 7.23633206,18.3402734 7.23652737,18.3391016 C7.23750394,18.3394922 6.79805081,18.7103906 6.73750394,19.2482813 C6.7072305,19.519375 6.78105862,19.7801172 6.86269925,19.9709375 C6.63203519,19.6830469 6.40586331,19.3916406 6.18437894,19.0969141 C6.29824612,18.9840234 6.58516019,18.6584375 6.64590237,18.2336328 C6.72090237,17.7035547 6.4228555,17.2115625 6.42305081,17.2105859 C6.42402737,17.2109766 5.96992581,17.5639063 5.88789456,18.0986719 C5.84668362,18.3701563 5.91113675,18.6355859 5.9853555,18.8297266 C5.76582425,18.531875 5.5509805,18.2307031 5.34062894,17.9264063 C5.45840237,17.8189844 5.75937894,17.5045313 5.83730862,17.0814844 C5.93359769,16.5551172 5.65547269,16.0519922 5.655668,16.0508203 C5.65644925,16.0512109 5.18887112,16.3859766 5.08555081,16.9170313 C5.03301175,17.1883203 5.08789456,17.4576563 5.15508206,17.6551172 C4.94687894,17.3478906 4.74336331,17.0373438 4.5447305,16.7236719 C4.66582425,16.6217188 4.980668,16.3191797 5.07539456,15.8988672 C5.19258206,15.3766016 4.93476956,14.8625391 4.93516019,14.8613672 C4.93594144,14.8617578 4.45547269,15.1775781 4.33086331,15.7041406 C4.26719144,15.9750391 4.31230862,16.2484766 4.37207425,16.4486719 C4.17558987,16.1322656 3.983793,15.8125391 3.79726956,15.4900781 C3.92187894,15.3937891 4.24961331,15.10375 4.36152737,14.6861719 C4.499418,14.1689844 4.26211331,13.6449609 4.26230862,13.6437891 C4.26328519,13.6441797 3.77031644,13.9404688 3.62519925,14.4617578 C3.55000394,14.7320703 3.5853555,15.0090234 3.63769925,15.2119531 C3.45332425,14.8865625 3.27383206,14.5584375 3.099418,14.2271875 C3.22676175,14.1363672 3.56738675,13.8592188 3.69590237,13.4455469 C3.85430081,12.9340234 3.63789456,12.4004297 3.63828519,12.3992578 C3.63906644,12.3998438 3.13476956,12.6762109 2.96894925,13.1914453 C2.88262112,13.4605859 2.90801175,13.7408594 2.95293362,13.9465234 C2.780668,13.6125391 2.61367581,13.275625 2.45195706,12.9363672 C2.5822305,12.8514063 2.93496487,12.5877344 3.08008206,12.1781641" id="Fill-7" fill="#FFFFFF"></path>
                <path d="M23.4162344,12.1781641 C23.2377188,11.6730859 23.432836,11.1303125 23.4324453,11.1291406 C23.4316641,11.1297266 23.9465078,11.3857813 24.1326407,11.8947656 C24.2302969,12.1621484 24.2152578,12.4455469 24.1777578,12.6533594 C24.3373282,12.3111719 24.491625,11.9664453 24.6404532,11.6191797 C24.5076407,11.5398828 24.1433828,11.2902734 23.9816641,10.8853906 C23.7832266,10.3873438 23.9568594,9.83636719 23.9564688,9.83519531 C23.9556875,9.83578125 24.4802969,10.0711328 24.6865469,10.5726953 C24.795336,10.8383203 24.7906485,11.1244531 24.760961,11.3344141 C24.9076407,10.9842188 25.048461,10.6314844 25.1842032,10.2764063 C25.1394766,10.0908594 25.0691641,9.688125 25.2051016,9.30121094 C25.3886953,8.7803125 25.8857657,8.46527344 25.8863516,8.46409903 C25.8865469,8.46273438 26.1093985,9.01605469 25.920336,9.55257813 C25.7783438,9.956875 25.4467032,10.2234766 25.2935782,10.3273828 C25.1627188,10.6701563 25.026586,11.0107813 24.885375,11.3490625 C25.0142813,11.1853906 25.2037344,10.9924219 25.4519766,10.8750391 C25.9474844,10.6404688 26.4963125,10.8027734 26.4965106,10.80375 C26.4974844,10.8033594 26.2369375,11.3781641 25.7332266,11.6094141 C25.332836,11.7935938 24.9076407,11.7066797 24.7517813,11.6652734 C24.6056875,12.0062891 24.4543203,12.3449609 24.2980703,12.6808984 C24.4332266,12.5221094 24.6310782,12.3351953 24.8851797,12.2275781 C25.3896719,12.0135156 25.9314688,12.1978906 25.9314688,12.1986719 C25.932836,12.1984766 25.6498282,12.7613672 25.1375235,12.9715234 C24.7293203,13.1396875 24.3068594,13.0348047 24.1535391,12.9873438 C23.9935782,13.3228906 23.8283438,13.6558984 23.6582266,13.9863672 C23.7998282,13.8326563 24.0058828,13.6521875 24.2662344,13.5543359 C24.7783438,13.3611719 25.3121328,13.5668359 25.3123282,13.5680078 C25.3135,13.5676172 25.0086172,14.1182031 24.4885,14.3070703 C24.072875,14.4588281 23.654125,14.3361719 23.5039297,14.2826563 C23.3302969,14.6127344 23.1513907,14.9398828 22.9676016,15.2641016 C23.1150625,15.1154688 23.3293203,14.9416406 23.5949453,14.85375 C24.1142813,14.6814844 24.6394766,14.9086328 24.6396719,14.9096094 C24.6408438,14.9092188 24.3144766,15.4465234 23.7873282,15.6146875 C23.3650625,15.7496484 22.9506094,15.6092188 22.8035391,15.5502344 C22.6160391,15.8738672 22.4238516,16.1945703 22.2263907,16.5123438 C22.3799063,16.3691797 22.6019766,16.2023828 22.872875,16.1246484 C23.3986563,15.9734766 23.9144766,16.2213281 23.9144766,16.2223047 C23.9156485,16.2221094 23.5681875,16.7457422 23.0349844,16.8924219 C22.6066641,17.0105859 22.1970938,16.8529688 22.0533438,16.7883203 C21.8525625,17.1053125 21.6467032,17.4191797 21.4361563,17.7299219 C21.595336,17.5922266 21.8252188,17.4324609 22.101,17.3654688 C22.63225,17.2351953 23.1375235,17.50375 23.1375235,17.5045313 C23.1388907,17.5045313 22.7709219,18.0135156 22.23225,18.1391016 C21.7986563,18.2402734 21.3945547,18.0652734 21.254711,17.9951563 C21.0404532,18.3051172 20.8215078,18.6117578 20.5974844,18.9150781 C20.7621328,18.7830469 20.9998282,18.6310938 21.2799063,18.5744531 C21.8162344,18.4654688 22.310375,18.7539453 22.310375,18.7549219 C22.3117422,18.7547266 21.923461,19.2488672 21.3801016,19.3527734 C20.941625,19.4371484 20.5441641,19.2449609 20.4080313,19.1697656 C20.1806875,19.4723047 19.948461,19.7711328 19.7115469,20.0666406 C19.8816641,19.9404688 20.126586,19.7961328 20.410961,19.7504297 C20.9513907,19.6625391 21.4336172,19.9703516 21.4336172,19.9713281 C21.4347891,19.9713281 21.0271719,20.4500391 20.479711,20.5322656 C20.0369375,20.5994531 19.6463125,20.3906641 19.5142813,20.3103906 C19.2740469,20.6049219 19.0289297,20.8957422 18.779125,21.1828516 C18.9543203,21.0627344 19.2068594,20.9264063 19.4949453,20.8916406 C20.0385,20.8252344 20.5080313,21.1521875 20.5080313,21.1531641 C20.5093985,21.1529688 20.0824453,21.6154688 19.5318594,21.6764063 C19.085375,21.7262109 18.7025625,21.5004297 18.5748282,21.4156641 C18.3215078,21.7017969 18.0636953,21.9840234 17.801,22.2623438 C17.9814688,22.1486719 18.2410391,22.0205469 18.5326407,21.9967188 C19.0789297,21.9517969 19.5351797,22.2973047 19.5349844,22.2980859 C19.5363516,22.2980859 19.0908438,22.7437891 18.5375235,22.7830469 C18.0879141,22.8154688 17.7136953,22.5736719 17.5902578,22.4842188 C17.3242422,22.7615625 17.0537344,23.0348047 16.7785391,23.3039453 C16.9636953,23.1965234 17.2302969,23.0767969 17.5252188,23.0642969 C18.073461,23.0408594 18.5154532,23.4041406 18.5152578,23.4049219 C18.516625,23.4049219 18.0525625,23.8334375 17.4976797,23.8510156 C17.0455313,23.8660547 16.6804922,23.6080469 16.5615469,23.5142969 C16.2830313,23.7822656 15.9998282,24.0461328 15.7123282,24.3057031 C15.9021719,24.2049219 16.1758047,24.0939844 16.473461,24.0930078 C17.022875,24.0906641 17.4500235,24.4713281 17.4498282,24.4723047 C17.4511953,24.4723047 16.9693594,24.8826563 16.4135,24.8787777 C15.8588125,24.8750391 15.4513907,24.4687891 15.4511953,24.4697656 C15.4511953,24.4697656 15.4537344,24.4676172 15.4584219,24.464099 C15.4580313,24.4639063 15.457836,24.4635156 15.4574453,24.463125 C15.4533438,24.4674219 15.4511953,24.4697656 15.4511953,24.4697656 C15.4502188,24.4699609 15.1027578,24.0152734 15.1369375,23.4777734 C15.1713125,22.9410547 15.5642813,22.5154688 15.5642813,22.5142969 C15.5631094,22.5144922 15.9377188,22.9508203 15.9097891,23.4933984 C15.8957266,23.7592188 15.7857657,24.0002344 15.6763907,24.175625 C15.9482657,23.9295313 16.2158438,23.6797266 16.4793203,23.4262109 C16.3834219,23.2930078 16.1570547,22.9285547 16.1660391,22.5023828 C16.1779532,21.9654688 16.5525625,21.5254297 16.5525625,21.5242578 C16.5517813,21.5246484 16.9433828,21.9455469 16.9379141,22.4879297 C16.9347891,22.7557031 16.8336172,23.0019922 16.7310782,23.1814844 C16.9929922,22.9244531 17.2508047,22.6641016 17.5043203,22.3996484 C17.4035391,22.2713281 17.1613516,21.9154688 17.1529532,21.4889063 C17.1427969,20.9525781 17.4986563,20.4986719 17.498461,20.4975 C17.4974844,20.4976953 17.9060782,20.9025781 17.9226797,21.4441797 C17.9306875,21.7133203 17.8385,21.9646875 17.7429922,22.1484766 C17.99475,21.8808984 18.242211,21.6096094 18.485375,21.3348047 C18.3799063,21.2115625 18.1224844,20.8652734 18.0965078,20.4387109 C18.0644766,19.90375 18.4013907,19.4363672 18.4011953,19.4351953 C18.4002188,19.4355859 18.8246328,19.8238672 18.8633047,20.3639063 C18.8824453,20.6342188 18.7992422,20.8902734 18.7107657,21.0775781 C18.9521719,20.7998438 19.189086,20.5182031 19.4215078,20.2334375 C19.3117422,20.1152734 19.0392813,19.7791406 18.9959219,19.3529688 C18.9424063,18.8201563 19.2599844,18.3402734 19.2599844,18.3391016 C19.2590078,18.3394922 19.698461,18.7103906 19.7588125,19.2482813 C19.789086,19.519375 19.7152578,19.7801172 19.6338125,19.9709375 C19.8642813,19.6830469 20.0904532,19.3916406 20.3119375,19.0969141 C20.1980703,18.9840234 19.9111563,18.6584375 19.8504141,18.2336328 C19.7752188,17.7035547 20.073461,17.2115625 20.0732657,17.2105859 C20.0724844,17.2109766 20.5261953,17.5639063 20.6084219,18.0986719 C20.6496328,18.3701563 20.5851797,18.6355859 20.5107657,18.8297266 C20.7304922,18.531875 20.9455313,18.2307031 21.1556875,17.9264063 C21.0379141,17.8189844 20.7367422,17.5045313 20.6592032,17.0814844 C20.5629141,16.5551172 20.8408438,16.0519922 20.8406485,16.0508203 C20.8398672,16.0512109 21.3074453,16.3859766 21.4107657,16.9170313 C21.4633047,17.1883203 21.4086172,17.4576563 21.3412344,17.6551172 C21.5494375,17.3478906 21.7529532,17.0373438 21.9517813,16.7236719 C21.8304922,16.6217188 21.5158438,16.3191797 21.4207266,15.8988672 C21.3037344,15.3766016 21.5615469,14.8625391 21.5611563,14.8613672 C21.560375,14.8617578 22.0410391,15.1775781 22.1654532,15.7041406 C22.2293203,15.9750391 22.1840078,16.2484766 22.1242422,16.4486719 C22.3207266,16.1322656 22.5123282,15.8125391 22.6990469,15.4900781 C22.5744375,15.3937891 22.2467032,15.10375 22.1347891,14.6861719 C21.9968985,14.1689844 22.2342032,13.6449609 22.2338125,13.6437891 C22.2330313,13.6441797 22.726,13.9404688 22.8713125,14.4617578 C22.9463125,14.7320703 22.910961,15.0090234 22.8586172,15.2119531 C23.0429922,14.8865625 23.2226797,14.5584375 23.3968985,14.2271875 C23.2695547,14.1363672 22.9289297,13.8592188 22.8004141,13.4455469 C22.6420157,12.9340234 22.8584219,12.4004297 22.8580313,12.3992578 C22.85725,12.3998438 23.3615469,12.6762109 23.5271719,13.1914453 C23.6136953,13.4605859 23.5883047,13.7408594 23.5433828,13.9465234 C23.7154532,13.6125391 23.8826407,13.275625 24.0445547,12.9363672 C23.914086,12.8514063 23.5613516,12.5877344 23.4162344,12.1781641" id="Fill-9" fill="#FFFFFF"></path>
                <path d="M9.4531094,8.49248047 C9.58852607,8.49248047 9.70571357,8.46435547 9.8046719,8.40810547 C9.90363024,8.35185547 9.98019274,8.27529297 10.0343594,8.17841797 C10.0885261,8.08154297 10.1156094,7.97373047 10.1156094,7.85498047 C10.1156094,7.67998047 10.0775886,7.53310547 10.0015469,7.41435547 C9.92550524,7.29560547 9.83227607,7.18935547 9.7218594,7.09560547 L9.7218594,7.09560547 L9.5124844,6.91123047 C9.43956774,6.84664714 9.38071357,6.78466797 9.3359219,6.72529297 C9.29113024,6.66591797 9.2687344,6.58935547 9.2687344,6.49560547 C9.2687344,6.45185547 9.28071357,6.40810547 9.3046719,6.36435547 C9.32863024,6.32060547 9.36665107,6.29873047 9.4187344,6.29873047 C9.46665107,6.29873047 9.50206774,6.31383464 9.5249844,6.34404297 C9.54790107,6.3742513 9.56300524,6.41695964 9.5702969,6.47216797 C9.57758857,6.5273763 9.58227607,6.59248047 9.5843594,6.66748047 L9.5843594,6.66748047 L10.0656094,6.60810547 C10.0635261,6.53310547 10.0546719,6.45445964 10.0390469,6.37216797 C10.0234219,6.2898763 9.99425524,6.2117513 9.9515469,6.13779297 C9.90883857,6.06383464 9.84633857,6.0039388 9.7640469,5.95810547 C9.68175524,5.91227214 9.57290107,5.88935547 9.4374844,5.88935547 C9.2187344,5.88935547 9.04581774,5.9461263 8.9187344,6.05966797 C8.79165107,6.17320964 8.7281094,6.33727214 8.7281094,6.55185547 C8.7281094,6.7039388 8.7609219,6.83154297 8.8265469,6.93466797 C8.8921719,7.03779297 8.97290107,7.12998047 9.0687344,7.21123047 L9.0687344,7.21123047 L9.2874844,7.40185547 C9.37290107,7.47477214 9.4406094,7.54716797 9.4906094,7.61904297 C9.5406094,7.69091797 9.5656094,7.7789388 9.5656094,7.88310547 C9.5656094,7.92685547 9.55675524,7.96852214 9.5390469,8.00810547 C9.52133857,8.0476888 9.48331774,8.06748047 9.4249844,8.06748047 C9.37915107,8.06748047 9.34008857,8.05289714 9.3077969,8.02373047 C9.27550524,7.9945638 9.25050524,7.94664714 9.2327969,7.87998047 C9.21508857,7.8133138 9.20519274,7.7258138 9.2031094,7.61748047 L9.2031094,7.61748047 L8.7249844,7.68935547 C8.7312344,7.87685547 8.76144274,8.02945964 8.8156094,8.14716797 C8.86977607,8.2648763 8.9499844,8.35185547 9.0562344,8.40810547 C9.1624844,8.46435547 9.29477607,8.49248047 9.4531094,8.49248047 Z M11.569971,8.45498047 L11.569971,8.07685547 L10.985596,8.07685547 L10.985596,7.32060547 L11.426221,7.32060547 L11.426221,6.93310547 L10.985596,6.93310547 L10.985596,6.30498047 L11.563721,6.30498047 L11.563721,5.92373047 L10.426221,5.92373047 L10.426221,8.45498047 L11.569971,8.45498047 Z M12.3180825,8.45498047 L12.4055825,7.92060547 L12.7774575,7.92060547 L12.8618325,8.45498047 L13.3774575,8.45498047 L12.9055825,5.92373047 L12.2680825,5.92373047 L11.7899575,8.45498047 L12.3180825,8.45498047 Z M12.7243325,7.58623047 L12.4555825,7.58623047 L12.5899575,6.59873047 L12.7243325,7.58623047 Z M14.3693191,8.49248047 C14.5047358,8.49248047 14.6219233,8.46435547 14.7208816,8.40810547 C14.8198399,8.35185547 14.8964024,8.27529297 14.9505691,8.17841797 C15.0047358,8.08154297 15.0318191,7.97373047 15.0318191,7.85498047 C15.0318191,7.67998047 14.9937983,7.53310547 14.9177566,7.41435547 C14.8417149,7.29560547 14.7484858,7.18935547 14.6380691,7.09560547 L14.6380691,7.09560547 L14.4286941,6.91123047 C14.3557774,6.84664714 14.2969233,6.78466797 14.2521316,6.72529297 C14.2073399,6.66591797 14.1849441,6.58935547 14.1849441,6.49560547 C14.1849441,6.45185547 14.1969233,6.40810547 14.2208816,6.36435547 C14.2448399,6.32060547 14.2828608,6.29873047 14.3349441,6.29873047 C14.3828608,6.29873047 14.4182774,6.31383464 14.4411941,6.34404297 C14.4641108,6.3742513 14.4792149,6.41695964 14.4865066,6.47216797 C14.4937983,6.5273763 14.4984858,6.59248047 14.5005691,6.66748047 L14.5005691,6.66748047 L14.9818191,6.60810547 C14.9797358,6.53310547 14.9708816,6.45445964 14.9552566,6.37216797 C14.9396316,6.2898763 14.9104649,6.2117513 14.8677566,6.13779297 C14.8250483,6.06383464 14.7625483,6.0039388 14.6802566,5.95810547 C14.5979649,5.91227214 14.4891108,5.88935547 14.3536941,5.88935547 C14.1349441,5.88935547 13.9620274,5.9461263 13.8349441,6.05966797 C13.7078608,6.17320964 13.6443191,6.33727214 13.6443191,6.55185547 C13.6443191,6.7039388 13.6771316,6.83154297 13.7427566,6.93466797 C13.8083816,7.03779297 13.8891108,7.12998047 13.9849441,7.21123047 L13.9849441,7.21123047 L14.2036941,7.40185547 C14.2891108,7.47477214 14.3568191,7.54716797 14.4068191,7.61904297 C14.4568191,7.69091797 14.4818191,7.7789388 14.4818191,7.88310547 C14.4818191,7.92685547 14.4729649,7.96852214 14.4552566,8.00810547 C14.4375483,8.0476888 14.3995274,8.06748047 14.3411941,8.06748047 C14.2953608,8.06748047 14.2562983,8.05289714 14.2240066,8.02373047 C14.1917149,7.9945638 14.1667149,7.94664714 14.1490066,7.87998047 C14.1312983,7.8133138 14.1214024,7.7258138 14.1193191,7.61748047 L14.1193191,7.61748047 L13.6411941,7.68935547 C13.6474441,7.87685547 13.6776524,8.02945964 13.7318191,8.14716797 C13.7859858,8.2648763 13.8661941,8.35185547 13.9724441,8.40810547 C14.0786941,8.46435547 14.2109858,8.49248047 14.3693191,8.49248047 Z M16.1174307,8.49248047 C16.3090973,8.49248047 16.4606598,8.45914714 16.5721182,8.39248047 C16.6835765,8.3258138 16.763264,8.22998047 16.8111807,8.10498047 C16.8590973,7.97998047 16.8830557,7.83102214 16.8830557,7.65810547 L16.8830557,7.65810547 L16.8830557,6.71748047 C16.8830557,6.54248047 16.8590973,6.39352214 16.8111807,6.27060547 C16.763264,6.1476888 16.6835765,6.05341797 16.5721182,5.98779297 C16.4606598,5.92216797 16.3090973,5.88935547 16.1174307,5.88935547 C15.9278473,5.88935547 15.7778473,5.92216797 15.6674307,5.98779297 C15.557014,6.05341797 15.4778473,6.1476888 15.4299307,6.27060547 C15.382014,6.39352214 15.3580557,6.54248047 15.3580557,6.71748047 L15.3580557,6.71748047 L15.3580557,7.65810547 C15.3580557,7.83102214 15.382014,7.97998047 15.4299307,8.10498047 C15.4778473,8.22998047 15.557014,8.3258138 15.6674307,8.39248047 C15.7778473,8.45914714 15.9278473,8.49248047 16.1174307,8.49248047 Z M16.1174307,8.09560547 C16.0590973,8.09560547 16.0169098,8.08102214 15.9908682,8.05185547 C15.9648265,8.0226888 15.9481598,7.9851888 15.9408682,7.93935547 C15.9335765,7.89352214 15.9299307,7.84664714 15.9299307,7.79873047 L15.9299307,7.79873047 L15.9299307,6.57998047 C15.9299307,6.52998047 15.9340973,6.48258464 15.9424307,6.43779297 C15.950764,6.3930013 15.9684723,6.35602214 15.9955557,6.32685547 C16.022639,6.2976888 16.063264,6.28310547 16.1174307,6.28310547 C16.175764,6.28310547 16.2184723,6.2976888 16.2455557,6.32685547 C16.272639,6.35602214 16.2903473,6.3930013 16.2986807,6.43779297 C16.307014,6.48258464 16.3111807,6.52998047 16.3111807,6.57998047 L16.3111807,6.57998047 L16.3111807,7.79873047 C16.3111807,7.84664714 16.307014,7.89352214 16.2986807,7.93935547 C16.2903473,7.9851888 16.272639,8.0226888 16.2455557,8.05185547 C16.2184723,8.08102214 16.175764,8.09560547 16.1174307,8.09560547 Z M17.7905422,8.45498047 L17.7905422,7.14248047 L18.3092922,8.45498047 L18.6874172,8.45498047 L18.6874172,5.92373047 L18.2249172,5.92373047 L18.2249172,7.14248047 L17.7061672,5.92373047 L17.3124172,5.92373047 L17.3124172,8.45498047 L17.7905422,8.45498047 Z" id="SEASON" fill="#FFFFFF" fill-rule="nonzero"></path>
            </g>
        </g>
    </g>
</svg>