<?xml version="1.0" encoding="UTF-8"?>
<svg width="40px" height="40px" viewBox="0 0 40 40" version="1.1" xmlns="http://www.w3.org/2000/svg" xmlns:xlink="http://www.w3.org/1999/xlink">
    <title>senour-ic</title>
    <defs>
        <circle id="path-1" cx="20" cy="20" r="20"></circle>
        <polygon id="path-3" points="0.578763265 0.126285714 21.9085592 0.126285714 21.9085592 29.7572857 0.578763265 29.7572857"></polygon>
    </defs>
    <g id="Page-1" stroke="none" stroke-width="1" fill="none" fill-rule="evenodd">
        <g id="11_02buytickets" transform="translate(-149.000000, -562.000000)">
            <g id="senour-ic" transform="translate(149.000000, 562.000000)">
                <mask id="mask-2" fill="white">
                    <use xlink:href="#path-1"></use>
                </mask>
                <use id="Mask" fill="#F4F3F3" xlink:href="#path-1"></use>
                <g id="Group-47" mask="url(#mask-2)">
                    <g transform="translate(3.000000, 2.000000)">
                        <path d="M11.8730082,33.0689551 C10.168151,33.0689551 8.5521102,33.454751 7.09913061,34.1514041 C3.11141633,36.0415265 0.347008163,40.2290776 0.347008163,45.0917714 L0.347008163,45.6697714 L33.2423551,45.6697714 L33.2423551,45.0917714 C33.2423551,38.4506694 28.0833755,33.0689551 21.7087224,33.0689551 L11.8730082,33.0689551 Z" id="Fill-1" fill="#BE1E2E"></path>
                        <g id="Group-5" stroke-width="1" fill="none" transform="translate(0.000000, 32.486306)">
                            <path d="M33.5893633,13.1835347 L32.8954857,13.1835347 L32.8954857,12.6055347 C32.8954857,6.16773878 27.8773633,0.929657143 21.7087918,0.929657143 L11.8730776,0.929657143 C10.255649,0.929657143 8.69997551,1.28214694 7.24977143,1.97810612 C3.26622041,3.86545306 0.694016327,8.0370449 0.694016327,12.6055347 L0.694016327,13.1835347 L0.00013877551,13.1835347 L0.00013877551,12.6055347 C0.00013877551,7.77059592 2.72846531,3.35337143 6.9507102,1.35084082 C8.49389388,0.611167347 10.1508735,0.235779592 11.8730776,0.235779592 L21.7087918,0.235779592 C28.2596898,0.235779592 33.5893633,5.78471837 33.5893633,12.6055347 L33.5893633,13.1835347 Z" id="Fill-3" fill="#161616"></path>
                        </g>
                        <polygon id="Fill-6" fill="#161616" points="19.5250898 45.6698408 18.8312122 45.6698408 18.8312122 32.0670653 14.7054163 32.0670653 14.7054163 45.6698408 14.0115388 45.6698408 14.0115388 31.3731878 19.5250898 31.3731878"></polygon>
                        <path d="M16.757698,35.5673306 L9.53026939,40.8970041 L7.09961633,34.1511265 C8.55190204,33.4544735 10.1679429,33.0686776 11.8728,33.0686776 L13.6220653,33.0686776 L16.757698,35.5673306 Z" id="Fill-8" fill="#BE1E2E"></path>
                        <path d="M7.53370612,34.3327143 L9.69929796,40.341 L16.1870531,35.5567143 L13.5010531,33.416102 L11.8725224,33.416102 C10.3605633,33.416102 8.90203265,33.7241837 7.53370612,34.3327143 L7.53370612,34.3327143 Z M9.36207347,41.4525918 L6.66635918,33.9732857 L6.94946122,33.8379796 C8.49403265,33.0976122 10.1503184,32.7222245 11.8725224,32.7222245 L13.7432163,32.7222245 L17.3277878,35.5782245 L9.36207347,41.4525918 Z" id="Fill-10" fill="#161616"></path>
                        <path d="M16.7515918,35.5673306 L23.9790204,40.8970041 L26.4096735,34.1511265 C24.9573878,33.4544735 23.3413469,33.0686776 21.6364898,33.0686776 L19.8872245,33.0686776 L16.7515918,35.5673306 Z" id="Fill-12" fill="#BE1E2E"></path>
                        <path d="M17.3218204,35.5564367 L23.8102694,40.3414163 L25.9751673,34.3324367 C24.6068408,33.7239061 23.1483102,33.4158245 21.636351,33.4158245 L20.0085143,33.4158245 L17.3218204,35.5564367 Z M24.1474939,41.4523143 L16.1810857,35.5779469 L19.7656571,32.7219469 L21.636351,32.7219469 C23.3585551,32.7219469 25.0148408,33.0973347 26.5594122,33.837702 L26.8425143,33.973702 L24.1474939,41.4523143 Z" id="Fill-14" fill="#161616"></path>
                        <path d="M9.00583673,17.1680571 C9.00583673,18.7154041 7.75061224,19.9706286 6.20257143,19.9706286 C4.65453061,19.9706286 3.4,18.7154041 3.4,17.1680571 C3.4,15.6200163 4.65453061,14.3647918 6.20257143,14.3647918 C7.75061224,14.3647918 9.00583673,15.6200163 9.00583673,17.1680571" id="Fill-16" fill="#FFFFFF"></path>
                        <path d="M6.20284898,14.7116612 C4.8484,14.7116612 3.74721633,15.8135388 3.74721633,17.1679878 C3.74721633,18.5217429 4.8484,19.6236204 6.20284898,19.6236204 C7.55729796,19.6236204 8.65917551,18.5217429 8.65917551,17.1679878 C8.65917551,15.8135388 7.55729796,14.7116612 6.20284898,14.7116612 M6.20284898,20.317498 C4.46607347,20.317498 3.05333878,18.9047633 3.05333878,17.1679878 C3.05333878,15.4312122 4.46607347,14.0177837 6.20284898,14.0177837 C7.93962449,14.0177837 9.35305306,15.4312122 9.35305306,17.1679878 C9.35305306,18.9047633 7.93962449,20.317498 6.20284898,20.317498" id="Fill-18" fill="#161616"></path>
                        <path d="M29.9146571,17.1680571 C29.9146571,18.7154041 28.6594327,19.9706286 27.1113918,19.9706286 C25.5640449,19.9706286 24.3088204,18.7154041 24.3088204,17.1680571 C24.3088204,15.6200163 25.5640449,14.3647918 27.1113918,14.3647918 C28.6594327,14.3647918 29.9146571,15.6200163 29.9146571,17.1680571" id="Fill-20" fill="#FFFFFF"></path>
                        <path d="M27.1116694,14.7116612 C25.7572204,14.7116612 24.6560367,15.8135388 24.6560367,17.1679878 C24.6560367,18.5217429 25.7572204,19.6236204 27.1116694,19.6236204 C28.4661184,19.6236204 29.5679959,18.5217429 29.5679959,17.1679878 C29.5679959,15.8135388 28.4661184,14.7116612 27.1116694,14.7116612 M27.1116694,20.317498 C25.3748939,20.317498 23.9621592,18.9047633 23.9621592,17.1679878 C23.9621592,15.4312122 25.3748939,14.0177837 27.1116694,14.0177837 C28.8484449,14.0177837 30.2618735,15.4312122 30.2618735,17.1679878 C30.2618735,18.9047633 28.8484449,20.317498 27.1116694,20.317498" id="Fill-22" fill="#161616"></path>
                        <path d="M16.7936408,37.2077959 L16.7936408,37.2077959 C14.1499673,37.2077959 12.0065796,35.0644082 12.0065796,32.4207347 L12.0065796,22.8153878 L21.580702,22.8153878 L21.580702,32.4207347 C21.580702,35.0644082 19.4380082,37.2077959 16.7936408,37.2077959" id="Fill-24" fill="#FFFFFF"></path>
                        <path d="M12.3535878,23.1628816 L12.3535878,32.4205959 C12.3535878,34.8685959 14.3457102,36.8607184 16.7937102,36.8607184 C19.2417102,36.8607184 21.2338327,34.8685959 21.2338327,32.4205959 L21.2338327,23.1628816 L12.3535878,23.1628816 Z M16.7937102,37.5545959 C13.9626898,37.5545959 11.6597102,35.2516163 11.6597102,32.4205959 L11.6597102,22.4690041 L21.9277102,22.4690041 L21.9277102,32.4205959 C21.9277102,35.2516163 19.6247306,37.5545959 16.7937102,37.5545959 L16.7937102,37.5545959 Z" id="Fill-26" fill="#161616"></path>
                        <path d="M27.1123633,11.3588449 L27.1123633,19.6603959 C27.1123633,25.3606 22.4946082,29.9783551 16.7944041,29.9783551 C11.0948939,29.9783551 6.47713878,25.3606 6.47713878,19.6603959 L6.47713878,11.3588449 C6.47713878,9.09055918 7.21056735,6.99296735 8.4484449,5.29574286 C10.3163633,2.71590612 13.3631796,1.04088571 16.7944041,1.04088571 C19.6483224,1.04088571 22.2274653,2.19757959 24.0884449,4.06480408 C25.9556694,5.92578367 27.1123633,8.50492653 27.1123633,11.3588449" id="Fill-28" fill="#FFFFFF"></path>
                        <g id="Group-32" stroke-width="1" fill="none" transform="translate(5.551020, 0.567939)">
                            <mask id="mask-4" fill="white">
                                <use xlink:href="#path-3"></use>
                            </mask>
                            <g id="Clip-31"></g>
                            <path d="M11.2436612,0.819816327 C8.05737551,0.819816327 5.04247755,2.3567551 3.17802857,4.93104082 C1.93182449,6.6407551 1.27264082,8.66687755 1.27264082,10.7908367 L1.27264082,19.0923878 C1.27264082,24.5906735 5.74606939,29.0634082 11.2436612,29.0634082 C16.7412531,29.0634082 21.2146816,24.5906735 21.2146816,19.0923878 L21.2146816,10.7908367 C21.2146816,8.12287755 20.1766408,5.62006122 18.2920694,3.74312245 C16.4144367,1.85716327 13.9116204,0.819816327 11.2436612,0.819816327 M11.2436612,29.7572857 C5.36304898,29.7572857 0.578763265,24.9736939 0.578763265,19.0923878 L0.578763265,10.7908367 C0.578763265,8.51908163 1.28374286,6.35140816 2.61737551,4.52304082 C4.61019184,1.76973469 7.83533469,0.125938776 11.2436612,0.125938776 C14.0968857,0.125938776 16.7745592,1.23614286 18.7826408,3.25255102 C20.7983551,5.2592449 21.9085592,7.93761224 21.9085592,10.7908367 L21.9085592,19.0923878 C21.9085592,24.9736939 17.1242735,29.7572857 11.2436612,29.7572857" id="Fill-30" fill="#161616" mask="url(#mask-4)"></path>
                        </g>
                        <path d="M15.6599837,19.5064939 L15.6010041,18.8153918 L17.3946776,18.6627388 C17.2330041,17.7926163 16.8645551,15.6235551 16.8645551,13.9679633 L17.5584327,13.9679633 C17.5584327,15.9725755 18.1419837,18.8778408 18.1475347,18.9069837 L18.225249,19.2893102 L15.6599837,19.5064939 Z" id="Fill-33" fill="#161616"></path>
                        <polygon id="Fill-35" fill="#161616" points="10.222898 16.9115306 13.7901224 16.9115306 13.7901224 16.2176531 10.222898 16.2176531"></polygon>
                        <polygon id="Fill-37" fill="#161616" points="19.7970204 16.9115306 23.3642449 16.9115306 23.3642449 16.2176531 19.7970204 16.2176531"></polygon>
                        <path d="M10.5758735,9.25348163 C10.5758735,11.6549918 8.78913878,13.6491959 6.47713878,13.9676857 L6.47713878,11.3587061 C6.47713878,9.09111429 7.21056735,6.99282857 8.4484449,5.29560408 C9.73073061,6.14074694 10.5758735,7.60066531 10.5758735,9.25348163" id="Fill-38" fill="#FFFFFF"></path>
                        <path d="M8.5311551,5.78069388 C7.41331837,7.42865306 6.82421633,9.35 6.82421633,11.3587755 L6.82421633,13.5507347 C8.79066531,13.0927755 10.2290735,11.3115918 10.2290735,9.25355102 C10.2290735,7.88244898 9.60042041,6.60779592 8.5311551,5.78069388 L8.5311551,5.78069388 Z M6.13033878,14.3653469 L6.13033878,11.3587755 C6.13033878,9.08702041 6.83462449,6.91934694 8.16825714,5.09097959 L8.36323673,4.82383673 L8.6394,5.00563265 C10.0694816,5.94791837 10.922951,7.5355102 10.922951,9.25355102 C10.922951,11.7917551 9.03213469,13.9663673 6.52446122,14.3112245 L6.13033878,14.3653469 Z" id="Fill-39" fill="#161616"></path>
                        <path d="M23.0134898,9.25348163 C23.0134898,11.6549918 24.7995306,13.6491959 27.1122245,13.9676857 L27.1122245,11.3587061 C27.1122245,9.09111429 26.3787959,6.99282857 25.1409184,5.29560408 C23.8586327,6.14074694 23.0134898,7.60066531 23.0134898,9.25348163" id="Fill-40" fill="#FFFFFF"></path>
                        <path d="M25.0582082,5.78069388 C23.9889429,6.60779592 23.3602898,7.88244898 23.3602898,9.25355102 C23.3602898,11.3115918 24.798698,13.0927755 26.7651469,13.5507347 L26.7651469,11.3587755 C26.7651469,9.35069388 26.1760449,7.42934694 25.0582082,5.78069388 L25.0582082,5.78069388 Z M27.4590245,14.3653469 L27.064902,14.3112245 C24.5572286,13.9663673 22.6664122,11.7917551 22.6664122,9.25355102 C22.6664122,7.5355102 23.5198816,5.94791837 24.9499633,5.00563265 L25.2261265,4.82383673 L25.4211061,5.09097959 C26.7547388,6.92004082 27.4590245,9.08702041 27.4590245,11.3587755 L27.4590245,14.3653469 Z" id="Fill-41" fill="#161616"></path>
                        <polygon id="Fill-42" fill="#161616" points="12.7395918 11.5228776 21.3256327 11.5228776 21.3256327 10.829 12.7395918 10.829"></polygon>
                        <polygon id="Fill-43" fill="#161616" points="13.9573469 8.43442857 20.1085714 8.43442857 20.1085714 7.74055102 13.9573469 7.74055102"></polygon>
                        <path d="M21.0510653,24.4219224 C20.8193102,24.0645755 20.2468612,23.188902 20.0747796,22.9592286 L19.7972286,23.166698 L19.5196776,23.3748612 C19.6279224,23.5198816 19.9408612,23.9917184 20.2225755,24.4219224 L18.9486163,24.4219224 C18.3449429,24.4219224 17.7981673,24.0826163 17.5213102,23.5358408 C17.4623306,23.4192694 17.3422898,23.3450245 17.2118408,23.3450245 C17.080698,23.3450245 16.961351,23.4192694 16.9023714,23.5358408 C16.6255143,24.0826163 16.0787388,24.4219224 15.4750653,24.4219224 L14.4300857,24.4219224 C14.7118,23.9917184 15.0247388,23.5198816 15.1329837,23.3748612 L14.8554327,23.166698 L14.5778816,22.9592286 C14.4058,23.188902 13.8340449,24.0645755 13.6015959,24.4219224 L11.6309837,24.4219224 C12.1652694,23.4657592 13.4836367,21.4354735 15.1343714,21.2474327 C15.1364531,21.2467388 15.1565755,21.2432694 15.1760041,21.2398 C15.1919633,21.2398 15.2072286,21.2384122 15.2211061,21.2363306 C15.3043714,21.2231469 15.3876367,21.2092694 15.4750653,21.2092694 L18.9486163,21.2092694 C19.035351,21.2092694 19.1193102,21.2231469 19.2143714,21.2377184 C19.2240857,21.2391061 19.2358816,21.2398 19.2469837,21.2404939 C19.2657184,21.2432694 19.2858408,21.2467388 19.2886163,21.2474327 C19.2997184,21.2495143 19.3101265,21.2515959 19.3212286,21.2529837 C20.9442082,21.4361673 22.2584122,23.4657592 22.7920041,24.4219224 L21.0510653,24.4219224 Z M23.6794735,24.6231469 C23.6080041,24.4691061 21.9066163,20.8477592 19.3996367,20.5625755 L19.3600857,20.9081265 L19.3656367,20.5577184 C19.3559224,20.5549429 19.3351061,20.5535551 19.3122082,20.5521673 L19.3122082,20.5507796 C19.1928612,20.5320449 19.0735143,20.5153918 18.9486163,20.5153918 L15.4750653,20.5153918 C15.3501673,20.5153918 15.2301265,20.5320449 15.1281265,20.5466163 C15.1100857,20.5480041 15.040698,20.5598 15.0240449,20.5625755 C12.5170653,20.8477592 10.8156776,24.4691061 10.7442082,24.6231469 C10.6949429,24.730698 10.7032694,24.8562898 10.7671061,24.9562082 C10.8309429,25.0554327 10.9412694,25.1158 11.0592286,25.1158 L15.4750653,25.1158 C16.1536776,25.1158 16.7816367,24.8181265 17.2118408,24.3143714 C17.6420449,24.8181265 18.2700041,25.1158 18.9486163,25.1158 L23.3644531,25.1158 C23.4824122,25.1158 23.5934327,25.0554327 23.6565755,24.9562082 C23.7204122,24.8562898 23.7287388,24.730698 23.6794735,24.6231469 L23.6794735,24.6231469 Z" id="Fill-46" fill="#161616"></path>
                    </g>
                </g>
            </g>
        </g>
    </g>
</svg>