<?xml version="1.0" encoding="UTF-8"?>
<svg width="29px" height="27px" viewBox="0 0 29 27" version="1.1" xmlns="http://www.w3.org/2000/svg" xmlns:xlink="http://www.w3.org/1999/xlink">
    <title>sport</title>
    <g id="Page-1" stroke="none" stroke-width="1" fill="none" fill-rule="evenodd">
        <g id="07_02players" transform="translate(-158.000000, -288.000000)" fill="#FFFFFF" fill-rule="nonzero">
            <g id="sport" transform="translate(158.500000, 288.000000)">
                <path d="M14,0 C6.54423828,0 0.5,6.04423828 0.5,13.5 C0.5,20.9557617 6.54423828,27 14,27 C21.4557617,27 27.5,20.9557617 27.5,13.5 C27.4916504,6.04775391 21.4522461,0.0083496375 14,0 Z M14.4818603,3.89201659 L19.175,2.01599123 C19.7076172,2.25703125 20.222876,2.53476563 20.717041,2.84721683 L20.7293457,2.85490721 C21.2149414,3.1625244 21.6790039,3.50288089 22.118457,3.87355956 L22.15625,3.90651857 C22.3533447,4.07438966 22.5449463,4.24819339 22.7312744,4.42749026 C22.7547852,4.45056154 22.7793945,4.47253419 22.8029053,4.49604495 C22.9982422,4.68676755 23.1874267,4.88342284 23.370459,5.08579099 C23.3856201,5.10292969 23.4001221,5.12094724 23.4152832,5.13808594 C23.5759033,5.31804201 23.7303711,5.50437013 23.8802246,5.6937744 C23.9162597,5.73881839 23.952295,5.78386232 23.9872314,5.82890625 C24.1498291,6.03940433 24.3071533,6.25363768 24.4556885,6.47468263 L23.5200928,10.4517334 L18.917041,11.9863037 L14.482959,8.43837891 L14.4818603,3.89201659 Z M4.01232909,5.83154297 C4.04726562,5.78649904 4.0828613,5.74145505 4.11889651,5.69663089 C4.26699219,5.50876466 4.42014159,5.32551268 4.57834471,5.14665529 C4.59548341,5.12775877 4.61130372,5.10842284 4.62822266,5.08952638 C4.81015625,4.88671875 4.9984619,4.69028317 5.19357909,4.5 C5.21599122,4.47802734 5.23840331,4.45495607 5.26191406,4.43474122 C5.44670409,4.25654297 5.63676755,4.08383786 5.83210451,3.91684567 L5.87714844,3.87905276 C6.31264651,3.51101076 6.77231442,3.17285156 7.2530762,2.86655276 L7.27065432,2.85534669 C7.76196286,2.54355469 8.27392578,2.26625974 8.80346682,2.025 L13.5181397,3.89201659 L13.5181397,8.43706057 L9.08383786,11.9843262 L4.48078612,10.4526123 L3.54519044,6.47556154 C3.69504393,6.25495607 3.85061034,6.04116214 4.01232909,5.83154297 Z M3.47004393,20.4053467 C3.33776857,20.2036377 3.21120607,19.9981934 3.0905762,19.7887939 L3.06135252,19.7382568 C2.94138185,19.5299561 2.82778317,19.3181397 2.72077638,19.1030273 L2.71704099,19.0962158 C2.49160156,18.6435791 2.29362794,18.1777588 2.12443846,17.7011719 L2.12443846,17.6967773 C2.04445799,17.4717773 1.97150877,17.2412842 1.90405276,17.0094727 L1.8796631,16.923999 C1.81791995,16.70625 1.76188966,16.486084 1.71179201,16.263501 C1.70739747,16.2417481 1.70190432,16.2210938 1.69750974,16.1995606 C1.58698732,15.6968262 1.50766599,15.1879394 1.45976562,14.6753174 L4.20700685,11.3787597 L8.77819826,12.9023437 L10.1049072,18.2087403 L7.925,21.1091309 L3.47004393,20.4053467 Z M16.9966309,25.736792 C16.7716309,25.7926025 16.5406983,25.8407227 16.3097656,25.8840088 C16.2774658,25.8903809 16.2445069,25.8956543 16.212207,25.9015869 C16.0155517,25.9367431 15.8166992,25.9668457 15.6174072,25.991455 C15.5642334,25.9982666 15.511499,26.0055175 15.458545,26.0118897 C15.2735352,26.0334228 15.0867676,26.0496826 14.8995606,26.0630859 C14.8406738,26.067041 14.7824463,26.0729736 14.7235596,26.076709 C14.4842773,26.0914306 14.2430176,26.1 14,26.1 C13.777417,26.1 13.5561523,26.0940674 13.3362061,26.0824219 C13.3096191,26.0824219 13.2841309,26.0780273 13.2575439,26.0760498 C13.0617676,26.0648437 12.8668701,26.0501221 12.6724121,26.0312256 L12.65,26.0270508 C12.2239502,25.9809082 11.8003174,25.9132324 11.3810791,25.8246826 L8.71931154,21.6571289 L10.8649414,18.7960693 L17.1350586,18.7960693 L19.3158447,21.6760254 L16.9966309,25.736792 Z M26.3057861,16.2 C26.3011719,16.2215332 26.2958984,16.2424072 26.2912842,16.2639404 C26.2409668,16.4863037 26.1849365,16.7064697 26.1234131,16.9244385 L26.0992431,17.0099121 C26.0315674,17.2417236 25.9588379,17.4713379 25.8786377,17.6972168 L25.8786377,17.7016113 C25.7094483,18.1781983 25.5116943,18.6440186 25.2860352,19.0966553 L25.2822998,19.1034668 C25.1746338,19.3187988 25.0612549,19.5306153 24.9417236,19.7386963 L24.9125,19.7892334 C24.7925293,19.999292 24.6661865,20.2042969 24.5336914,20.4049072 L20.0938965,21.1049561 L17.8988281,18.2069824 L19.2248779,12.9019043 L23.7960693,11.3783203 L26.5433106,14.6748779 C26.4956299,15.1877197 26.4163086,15.6970459 26.3057861,16.2 L26.3057861,16.2 Z" id="Shape"></path>
            </g>
        </g>
    </g>
</svg>